<?xml version="1.0" encoding="utf-8"?>
<!-- Generator: Adobe Illustrator 23.1.1, SVG Export Plug-In . SVG Version: 6.00 Build 0)  -->
<svg version="1.1" id="Camada_1" xmlns="http://www.w3.org/2000/svg" xmlns:xlink="http://www.w3.org/1999/xlink" x="0px" y="0px"
	 viewBox="0 0 398.1 643.4" style="enable-background:new 0 0 398.1 643.4;" xml:space="preserve">
<style type="text/css">
	.st0{fill:#656565;}
</style>
<title>login</title>
<g>
	<g id="svg6639">
		<path class="st0" d="M200.5,153.3c38.5,0,72.2-28,72.2-76.4c0-49-33.7-77-72.1-77s-72.1,28-72.1,77
			C128.4,125.4,162.1,153.3,200.5,153.3z M200.5,20.7c28,0,46.6,22.5,46.6,56.2c0,33.4-18.6,55.6-46.6,55.6S154,110.3,154,77
			C154,43.3,172.6,20.7,200.5,20.7z"/>
		<path class="st0" d="M249,307.9c-13.2,8.4-27.1,13.8-44.5,13.8c-30.3,0-53.8-16.8-56.8-49.9h115.1c0.8-5,1.2-10,1.2-15
			c0-41.2-24.6-68.6-66.7-68.6c-39.1,0-74.6,28.9-74.6,76.4c0,48.7,34.9,77,78.8,77c20.2,0,39.9-6.1,56.5-17.5L249,307.9z
			 M197.9,207.8c24.9,0,41.5,14.9,43.6,44.8h-93.2C152.9,223.8,174,207.8,197.9,207.8z"/>
		<polygon class="st0" points="286,181.8 286,205.8 376.2,266.5 376.2,267.8 286,328.5 286,352.5 398.1,276.8 398.1,257.5 		"/>
		<polygon class="st0" points="112.1,328.5 22,267.8 22,266.5 112.1,205.8 112.1,181.8 0,257.5 0,276.8 112.1,352.5 		"/>
		<polygon class="st0" points="50.4,643.4 72.7,643.4 171.3,381.9 149,381.9 		"/>
		<polygon class="st0" points="230.8,381.9 329.4,643.4 351.6,643.4 253,381.9 		"/>
	</g>
</g>
</svg>
